Week 4: Data Wrangling
…
The result is a new data frame

data_clean_human<-filter(data_clean, species== "Human")

A quick note about %>%

We have a lot to cover today, so we won’t be going over pipes explicitly. You will notice in my code I frequently use ’%>%’. The shortcut on mac is shift+command+m.

When doing things using dplyr especially, reading from left to right can get very confusing! This is because sometimes the code is counter intuitive to what is happening. The pipe helps me be able to pass data through each argument and it also makes it much more legible.

In a sense %>% really means “and then”. I’ll be using it today because I believe it makes the task of data wrangling much easier, but it is not required. You could consider learning how to do this without the pipe for mini hacks.

data_clean %>% filter(species== "Human")

# A tibble: 35 × 15
   name          character_height character_mass hair_color skin_color eye_color
   <chr>                    <dbl>          <dbl> <chr>      <chr>      <chr>    
 1 Luke Skywalk…              172             77 blond      fair       blue     
 2 Darth Vader                202            136 none       white      yellow   
 3 Leia Organa                150             49 brown      light      brown    
 4 Owen Lars                  178            120 brown, gr… light      blue     
 5 Beru Whitesu…              165             75 brown      light      blue     
 6 Biggs Darkli…              183             84 black      light      brown    
 7 Obi-Wan Keno…              182             77 auburn, w… fair       blue-gray
 8 Anakin Skywa…              188             84 blond      fair       blue     
 9 Wilhuff Tark…              180             NA auburn, g… fair       blue     
10 Han Solo                   180             80 brown      fair       brown    
# ℹ 25 more rows
# ℹ 9 more variables: birth_year <dbl>, sex <chr>, gender <chr>,
#   homeworld <chr>, species <chr>, `1990` <dbl>, `1991` <dbl>, `1993` <dbl>,
#   character_weapon <chr>

data_clean %>% filter(character_mass > 50)

# A tibble: 46 × 15
   name          character_height character_mass hair_color skin_color eye_color
   <chr>                    <dbl>          <dbl> <chr>      <chr>      <chr>    
 1 Luke Skywalk…              172             77 blond      fair       blue     
 2 C-3PO                      167             75 <NA>       gold       yellow   
 3 Darth Vader                202            136 none       white      yellow   
 4 Owen Lars                  178            120 brown, gr… light      blue     
 5 Beru Whitesu…              165             75 brown      light      blue     
 6 Biggs Darkli…              183             84 black      light      brown    
 7 Obi-Wan Keno…              182             77 auburn, w… fair       blue-gray
 8 Anakin Skywa…              188             84 blond      fair       blue     
 9 Chewbacca                  228            112 brown      unknown    blue     
10 Han Solo                   180             80 brown      fair       brown    
# ℹ 36 more rows
# ℹ 9 more variables: birth_year <dbl>, sex <chr>, gender <chr>,
#   homeworld <chr>, species <chr>, `1990` <dbl>, `1991` <dbl>, `1993` <dbl>,
#   character_weapon <chr>

A cheat sheet on how to select what you want!

data_clean %>% filter(species != "Human")

# A tibble: 48 × 15
   name          character_height character_mass hair_color skin_color eye_color
   <chr>                    <dbl>          <dbl> <chr>      <chr>      <chr>    
 1 C-3PO                      167             75 <NA>       gold       yellow   
 2 R2-D2                       96             32 <NA>       white, bl… red      
 3 R5-D4                       97             32 <NA>       white, red red      
 4 Chewbacca                  228            112 brown      unknown    blue     
 5 Greedo                     173             74 <NA>       green      black    
 6 Jabba Desili…              175           1358 <NA>       green-tan… orange   
 7 Yoda                        66             17 white      green      brown    
 8 IG-88                      200            140 none       metal      red      
 9 Bossk                      190            113 none       green      red      
10 Ackbar                     180             83 none       brown mot… orange   
# ℹ 38 more rows
# ℹ 9 more variables: birth_year <dbl>, sex <chr>, gender <chr>,
#   homeworld <chr>, species <chr>, `1990` <dbl>, `1991` <dbl>, `1993` <dbl>,
#   character_weapon <chr>
…
‘|’
or

‘!’
not

mutate ()

Adds new columns from current variables. This dataset doesn’t have a ton of numerical data, but we can still come up with some fun things!

data %>% mutate(name, power = (character_mass*character_height)/100)

# A tibble: 87 × 16
   name          character_height character_mass hair_color skin_color eye_color
   <chr>                    <dbl>          <dbl> <chr>      <chr>      <chr>    
 1 Luke Skywalk…              172             77 blond      fair       blue     
 2 C-3PO                      167             75 <NA>       gold       yellow   
 3 R2-D2                       96             32 <NA>       white, bl… red      
 4 Darth Vader                202            136 none       white      yellow   
 5 Leia Organa                150             49 brown      light      brown    
 6 Owen Lars                  178            120 brown, gr… light      blue     
 7 Beru Whitesu…              165             75 brown      light      blue     
 8 R5-D4                       97             32 <NA>       white, red red      
 9 Biggs Darkli…              183             84 black      light      brown    
10 Obi-Wan Keno…              182             77 auburn, w… fair       blue-gray
# ℹ 77 more rows
# ℹ 10 more variables: birth_year <dbl>, sex <chr>, gender <chr>,
#   homeworld <chr>, species <chr>, `1990` <dbl>, `1991` <dbl>, `1993` <dbl>,
#   character_weapon <chr>, power <dbl>

data %>% mutate(name, heightandmass = (character_mass + character_height))

# A tibble: 87 × 16
   name          character_height character_mass hair_color skin_color eye_color
   <chr>                    <dbl>          <dbl> <chr>      <chr>      <chr>    
 1 Luke Skywalk…              172             77 blond      fair       blue     
 2 C-3PO                      167             75 <NA>       gold       yellow   
 3 R2-D2                       96             32 <NA>       white, bl… red      
 4 Darth Vader                202            136 none       white      yellow   
 5 Leia Organa                150             49 brown      light      brown    
 6 Owen Lars                  178            120 brown, gr… light      blue     
 7 Beru Whitesu…              165             75 brown      light      blue     
 8 R5-D4                       97             32 <NA>       white, red red      
 9 Biggs Darkli…              183             84 black      light      brown    
10 Obi-Wan Keno…              182             77 auburn, w… fair       blue-gray
# ℹ 77 more rows
# ℹ 10 more variables: birth_year <dbl>, sex <chr>, gender <chr>,
#   homeworld <chr>, species <chr>, `1990` <dbl>, `1991` <dbl>, `1993` <dbl>,
#   character_weapon <chr>, heightandmass <dbl>

select ()

Essentially this allows you to only use the variables that you want to in a data frame. For me, this is also a convenient way to save a subset of a given data frame.

data_clean %>% dplyr::select(name, species, character_height)

# A tibble: 87 × 3
   name               species character_height
   <chr>              <chr>              <dbl>
 1 Luke Skywalker     Human                172
 2 C-3PO              Droid                167
 3 R2-D2              Droid                 96
 4 Darth Vader        Human                202
 5 Leia Organa        Human                150
 6 Owen Lars          Human                178
 7 Beru Whitesun Lars Human                165
 8 R5-D4              Droid                 97
 9 Biggs Darklighter  Human                183
10 Obi-Wan Kenobi     Human                182
# ℹ 77 more rows

data_clean %>% dplyr::select(name, starts_with ("19"))

# A tibble: 87 × 4
   name               `1990` `1991` `1993`
   <chr>               <dbl>  <dbl>  <dbl>
 1 Luke Skywalker          9      5      6
 2 C-3PO                   7      4      4
 3 R2-D2                   5      3      3
 4 Darth Vader             3      2      2
 5 Leia Organa             9      1      1
 6 Owen Lars               7      5      5
 7 Beru Whitesun Lars      5      4      4
 8 R5-D4                   3      3      3
 9 Biggs Darklighter       9      2      2
10 Obi-Wan Kenobi          7      1      1
# ℹ 77 more rows
…
full_join()- keeps all observations in x and y.

First let’s make two subsets

data_sub1<-data_clean %>% dplyr::select(name, character_mass, character_weapon)
data_sub2<-starwars 

Recombine

inner_join (data_sub1,data_sub2)

Joining with `by = join_by(name)`

# A tibble: 87 × 16
   name       character_mass character_weapon height  mass hair_color skin_color
   <chr>               <dbl> <chr>             <int> <dbl> <chr>      <chr>     
 1 Luke Skyw…             77 Red Lightsaber      172    77 blond      fair      
 2 C-3PO                  75 Blue Sword          167    75 <NA>       gold      
 3 R2-D2                  32 Green Sword          96    32 <NA>       white, bl…
 4 Darth Vad…            136 Purple Lightsab…    202   136 none       white     
 5 Leia Orga…             49 Purple Sword        150    49 brown      light     
 6 Owen Lars             120 Red Sword           178   120 brown, gr… light     
 7 Beru Whit…             75 Blue Lightsaber     165    75 brown      light     
 8 R5-D4                  32 Green Lightsaber     97    32 <NA>       white, red
 9 Biggs Dar…             84 Red Lightsaber      183    84 black      light     
10 Obi-Wan K…             77 Blue Sword          182    77 auburn, w… fair      
# ℹ 77 more rows
# ℹ 9 more variables: eye_color <chr>, birth_year <dbl>, sex <chr>,
#   gender <chr>, homeworld <chr>, species <chr>, films <list>,
#   vehicles <list>, starships <list>
…
inner_join(data_sub1,data_sub2)

Joining with `by = join_by(name)`

# A tibble: 87 × 16
   name       character_mass character_weapon height  mass hair_color skin_color
   <chr>               <dbl> <chr>             <int> <dbl> <chr>      <chr>     
 1 Luke Skyw…             77 Red Lightsaber      172    77 blond      fair      
 2 C-3PO                  75 Blue Sword          167    75 <NA>       gold      
 3 R2-D2                  32 Green Sword          96    32 <NA>       white, bl…
 4 Darth Vad…            136 Purple Lightsab…    202   136 none       white     
 5 Leia Orga…             49 Purple Sword        150    49 brown      light     
 6 Owen Lars             120 Red Sword           178   120 brown, gr… light     
 7 Beru Whit…             75 Blue Lightsaber     165    75 brown      light     
 8 R5-D4                  32 Green Lightsaber     97    32 <NA>       white, red
 9 Biggs Dar…             84 Red Lightsaber      183    84 black      light     
10 Obi-Wan K…             77 Blue Sword          182    77 auburn, w… fair      
# ℹ 77 more rows
# ℹ 9 more variables: eye_color <chr>, birth_year <dbl>, sex <chr>,
#   gender <chr>, homeworld <chr>, species <chr>, films <list>,
#   vehicles <list>, starships <list>

left_join(data_sub1,data_sub2)

Joining with `by = join_by(name)`

# A tibble: 87 × 16
   name       character_mass character_weapon height  mass hair_color skin_color
   <chr>               <dbl> <chr>             <int> <dbl> <chr>      <chr>     
 1 Luke Skyw…             77 Red Lightsaber      172    77 blond      fair      
 2 C-3PO                  75 Blue Sword          167    75 <NA>       gold      
 3 R2-D2                  32 Green Sword          96    32 <NA>       white, bl…
 4 Darth Vad…            136 Purple Lightsab…    202   136 none       white     
 5 Leia Orga…             49 Purple Sword        150    49 brown      light     
 6 Owen Lars             120 Red Sword           178   120 brown, gr… light     
 7 Beru Whit…             75 Blue Lightsaber     165    75 brown      light     
 8 R5-D4                  32 Green Lightsaber     97    32 <NA>       white, red
 9 Biggs Dar…             84 Red Lightsaber      183    84 black      light     
10 Obi-Wan K…             77 Blue Sword          182    77 auburn, w… fair      
# ℹ 77 more rows
# ℹ 9 more variables: eye_color <chr>, birth_year <dbl>, sex <chr>,
#   gender <chr>, homeworld <chr>, species <chr>, films <list>,
#   vehicles <list>, starships <list>

left_join(data_sub2,data_sub1)

Joining with `by = join_by(name)`

# A tibble: 87 × 16
   name     height  mass hair_color skin_color eye_color birth_year sex   gender
   <chr>     <int> <dbl> <chr>      <chr>      <chr>          <dbl> <chr> <chr> 
 1 Luke Sk…    172    77 blond      fair       blue            19   male  mascu…
 2 C-3PO       167    75 <NA>       gold       yellow         112   none  mascu…
 3 R2-D2        96    32 <NA>       white, bl… red             33   none  mascu…
 4 Darth V…    202   136 none       white      yellow          41.9 male  mascu…
 5 Leia Or…    150    49 brown      light      brown           19   fema… femin…
 6 Owen La…    178   120 brown, gr… light      blue            52   male  mascu…
 7 Beru Wh…    165    75 brown      light      blue            47   fema… femin…
 8 R5-D4        97    32 <NA>       white, red red             NA   none  mascu…
 9 Biggs D…    183    84 black      light      brown           24   male  mascu…
10 Obi-Wan…    182    77 auburn, w… fair       blue-gray       57   male  mascu…
# ℹ 77 more rows
# ℹ 7 more variables: homeworld <chr>, species <chr>, films <list>,
#   vehicles <list>, starships <list>, character_mass <dbl>,
#   character_weapon <chr>

full_join(data_sub1, data_sub2)

Joining with `by = join_by(name)`

# A tibble: 87 × 16
   name       character_mass character_weapon height  mass hair_color skin_color
   <chr>               <dbl> <chr>             <int> <dbl> <chr>      <chr>     
 1 Luke Skyw…             77 Red Lightsaber      172    77 blond      fair      
 2 C-3PO                  75 Blue Sword          167    75 <NA>       gold      
 3 R2-D2                  32 Green Sword          96    32 <NA>       white, bl…
 4 Darth Vad…            136 Purple Lightsab…    202   136 none       white     
 5 Leia Orga…             49 Purple Sword        150    49 brown      light     
 6 Owen Lars             120 Red Sword           178   120 brown, gr… light     
 7 Beru Whit…             75 Blue Lightsaber     165    75 brown      light     
 8 R5-D4                  32 Green Lightsaber     97    32 <NA>       white, red
 9 Biggs Dar…             84 Red Lightsaber      183    84 black      light     
10 Obi-Wan K…             77 Blue Sword          182    77 auburn, w… fair      
# ℹ 77 more rows
# ℹ 9 more variables: eye_color <chr>, birth_year <dbl>, sex <chr>,
#   gender <chr>, homeworld <chr>, species <chr>, films <list>,
#   vehicles <list>, starships <list>
…
I really recommend visiting this site if you need extra help on joining for the mini hacks.

flights2<- flights %>%  dplyr::select(year, origin, dest, carrier,tailnum)

flights2 %>% filter(origin == 'LGA') %>% left_join(planes %>% dplyr::select(tailnum, seats))

Joining with `by = join_by(tailnum)`

# A tibble: 104,662 × 6
    year origin dest  carrier tailnum seats
   <int> <chr>  <chr> <chr>   <chr>   <int>
 1  2013 LGA    IAH   UA      N24211    149
 2  2013 LGA    ATL   DL      N668DN    178
 3  2013 LGA    IAD   EV      N829AS     55
 4  2013 LGA    ORD   AA      N3ALAA     NA
 5  2013 LGA    DFW   AA      N3DUAA     NA
 6  2013 LGA    FLL   B6      N595JB    200
 7  2013 LGA    ATL   MQ      N542MQ     NA
 8  2013 LGA    MSP   DL      N971DL    142
 9  2013 LGA    DTW   MQ      N730MQ     NA
10  2013 LGA    MIA   AA      N3EMAA     NA
# ℹ 104,652 more rows

airports<-airports %>% semi_join(flights2, join_by(faa == dest))

This uses semi-join to show airports to show just destination airports.

anti_join(planes, flights)

Joining with `by = join_by(tailnum, year)`

# A tibble: 3,230 × 9
   tailnum  year type              manufacturer model engines seats speed engine
   <chr>   <int> <chr>             <chr>        <chr>   <int> <int> <int> <chr> 
 1 N10156   2004 Fixed wing multi… EMBRAER      EMB-…       2    55    NA Turbo…
 2 N102UW   1998 Fixed wing multi… AIRBUS INDU… A320…       2   182    NA Turbo…
 3 N103US   1999 Fixed wing multi… AIRBUS INDU… A320…       2   182    NA Turbo…
 4 N104UW   1999 Fixed wing multi… AIRBUS INDU… A320…       2   182    NA Turbo…
 5 N10575   2002 Fixed wing multi… EMBRAER      EMB-…       2    55    NA Turbo…
 6 N105UW   1999 Fixed wing multi… AIRBUS INDU… A320…       2   182    NA Turbo…
 7 N107US   1999 Fixed wing multi… AIRBUS INDU… A320…       2   182    NA Turbo…
 8 N108UW   1999 Fixed wing multi… AIRBUS INDU… A320…       2   182    NA Turbo…
 9 N109UW   1999 Fixed wing multi… AIRBUS INDU… A320…       2   182    NA Turbo…
10 N110UW   1999 Fixed wing multi… AIRBUS INDU… A320…       2   182    NA Turbo…
# ℹ 3,220 more rows
…
